{
  "contentName": "Blacksonte-Custom-Form-Template",
  "uniqueId": "67109387-41d1-4f24-84f2-ba7a3e6d2066",
  "contentType": "Automation-CloudTemplate",
  "keyValues": {"contentEndpointVersion": "8.x"},
  "descendents": []
}