{
  "contentName": "BlackstoneTestPropertyGroup",
  "uniqueId": "4870a897-0cfd-4437-a464-0f44c430aaa1",
  "contentType": "Automation-PropertyGroup",
  "keyValues": {"contentEndpointVersion": "8.x"},
  "descendents": []
}